<svg width="16" height="16" viewBox="0 0 16 16" fill="none" xmlns="http://www.w3.org/2000/svg">
<path d="M7.99744 1.69442C10.0522 1.69442 10.2946 1.70151 11.1068 1.73934C11.5945 1.74537 12.0775 1.83494 12.535 2.00417C12.8667 2.13166 13.168 2.32739 13.4193 2.57871C13.6707 2.83003 13.8664 3.13132 13.9939 3.46309C14.1631 3.92052 14.2527 4.40357 14.2587 4.89126C14.2965 5.70348 14.3036 5.94584 14.3036 7.99944C14.3036 10.053 14.2965 10.2966 14.2587 11.1088C14.2527 11.5965 14.1631 12.0795 13.9939 12.537C13.8664 12.8687 13.6707 13.17 13.4193 13.4214C13.168 13.6727 12.8667 13.8684 12.535 13.9959C12.0775 14.1651 11.5945 14.2547 11.1068 14.2607C10.2958 14.2986 10.0522 14.3056 7.99744 14.3056C5.94266 14.3056 5.70029 14.2986 4.88925 14.2607C4.40156 14.2547 3.91851 14.1651 3.46108 13.9959C3.12932 13.8684 2.82802 13.6727 2.57671 13.4214C2.32539 13.17 2.12966 12.8687 2.00217 12.537C1.83294 12.0795 1.74337 11.5965 1.73734 11.1088C1.69951 10.2966 1.69242 10.0542 1.69242 7.99944C1.69242 5.94466 1.69951 5.70348 1.73734 4.89126C1.74337 4.40357 1.83294 3.92052 2.00217 3.46309C2.12966 3.13132 2.32539 2.83003 2.57671 2.57871C2.82802 2.32739 3.12932 2.13166 3.46108 2.00417C3.91851 1.83494 4.40156 1.74537 4.88925 1.73934C5.70147 1.70151 5.94384 1.69442 7.99744 1.69442ZM7.99744 0.307617C5.90955 0.307617 5.6471 0.317075 4.8266 0.354908C4.18873 0.366441 3.55746 0.486378 2.9598 0.709588C2.44951 0.906795 1.98608 1.2085 1.59924 1.59533C1.21241 1.98217 0.910704 2.4456 0.713497 2.95589C0.490287 3.55355 0.37035 4.18482 0.358817 4.82269C0.320984 5.64318 0.311523 5.90565 0.311523 7.99353C0.311523 10.0814 0.320984 10.3451 0.358817 11.1655C0.37035 11.8034 0.490287 12.4347 0.713497 13.0323C0.910704 13.5426 1.21241 14.0061 1.59924 14.3929C1.98608 14.7797 2.44951 15.0814 2.9598 15.2787C3.55746 15.5019 4.18873 15.6218 4.8266 15.6333C5.6471 15.6712 5.90955 15.6806 7.99744 15.6806C10.0853 15.6806 10.349 15.6712 11.1694 15.6333C11.8073 15.6218 12.4386 15.5019 13.0363 15.2787C13.5465 15.0814 14.01 14.7797 14.3968 14.3929C14.7836 14.0061 15.0854 13.5426 15.2826 13.0323C15.5058 12.4347 15.6257 11.8034 15.6372 11.1655C15.6751 10.3451 15.6845 10.0826 15.6845 7.99353C15.6845 5.90447 15.6751 5.64318 15.6372 4.82269C15.6257 4.18482 15.5058 3.55355 15.2826 2.95589C15.0854 2.4456 14.7836 1.98217 14.3968 1.59533C14.01 1.2085 13.5465 0.906795 13.0363 0.709588C12.4386 0.486378 11.8073 0.366441 11.1694 0.354908C10.349 0.317075 10.0865 0.307617 7.99744 0.307617Z" fill="#494949"/>
<path d="M7.99634 4.05078C7.21507 4.05078 6.45134 4.28247 5.80175 4.71655C5.15216 5.15063 4.64588 5.7676 4.34695 6.48942C4.04802 7.21125 3.96987 8.00552 4.12237 8.77176C4.27488 9.53801 4.6512 10.2418 5.20373 10.7942C5.75626 11.3466 6.46018 11.7227 7.22647 11.8749C7.99276 12.0272 8.787 11.9488 9.50874 11.6497C10.2305 11.3505 10.8473 10.8441 11.2812 10.1943C11.7151 9.54463 11.9465 8.78083 11.9463 7.99955C11.9463 7.48089 11.8441 6.96731 11.6456 6.48815C11.4471 6.00898 11.1561 5.57362 10.7893 5.20693C10.4225 4.84024 9.98705 4.5494 9.50783 4.35102C9.02861 4.15265 8.515 4.05063 7.99634 4.05078ZM7.99634 10.5639C7.48917 10.5639 6.99338 10.4135 6.57168 10.1317C6.14997 9.84994 5.8213 9.44945 5.62721 8.98088C5.43312 8.51231 5.38234 7.99671 5.48129 7.49927C5.58023 7.00184 5.82445 6.54492 6.18308 6.18629C6.54171 5.82766 6.99864 5.58343 7.49607 5.48449C7.99351 5.38554 8.5091 5.43632 8.97767 5.63041C9.44624 5.8245 9.84673 6.15318 10.1285 6.57488C10.4103 6.99658 10.5607 7.49237 10.5607 7.99955C10.5607 8.67965 10.2905 9.3319 9.8096 9.81281C9.3287 10.2937 8.67645 10.5639 7.99634 10.5639Z" fill="#494949"/>
<path d="M12.1035 4.81789C12.6135 4.81789 13.0269 4.40449 13.0269 3.89454C13.0269 3.38459 12.6135 2.97119 12.1035 2.97119C11.5936 2.97119 11.1802 3.38459 11.1802 3.89454C11.1802 4.40449 11.5936 4.81789 12.1035 4.81789Z" fill="#494949"/>
</svg>
