<svg width="17" height="15" viewBox="0 0 17 15" fill="none" xmlns="http://www.w3.org/2000/svg">
<path d="M15.272 0.856795L1.02869 6.25169C0.249548 6.47633 0.274375 7.24601 0.850162 7.434L4.42075 8.54773L5.78632 12.7367C5.95302 13.1942 6.08781 13.3668 6.37156 13.3716C6.65532 13.3763 6.78419 13.2663 7.09396 12.9921C7.45574 12.6527 8.00788 12.1171 8.88043 11.2682L12.5929 14.0124C13.2763 14.3895 13.7752 14.1945 13.9407 13.3775L16.2687 1.86176C16.517 0.859159 15.9258 0.560034 15.272 0.856795ZM4.97644 8.28526L13.0883 3.20132C13.4891 2.93293 13.6144 3.23206 13.4335 3.43778L6.69433 9.49713L6.34792 12.5215L4.97644 8.28526Z" fill="#494949"/>
</svg>
