<svg width="30" height="25" viewBox="0 0 30 25" fill="none" xmlns="http://www.w3.org/2000/svg">
<path d="M27.5005 0.237253L1.38773 10.1279C-0.0407051 10.5397 0.00481188 11.9508 1.06042 12.2955L7.60649 14.3373L10.11 22.017C10.4157 22.8559 10.6628 23.1723 11.183 23.181C11.7032 23.1897 11.9395 22.9881 12.5074 22.4852C13.1707 21.8631 14.1829 20.8812 15.7826 19.3249L22.5888 24.3558C23.8416 25.0473 24.7563 24.6896 25.0598 23.1918L29.3277 2.07969C29.7829 0.241588 28.6991 -0.306807 27.5005 0.237253ZM8.62526 13.8561L23.497 4.53554C24.2318 4.0435 24.4615 4.5919 24.1299 4.96906L11.7747 16.0779L11.1396 21.6225L8.62526 13.8561Z" fill="white"/>
</svg>
