<svg width="29" height="30" viewBox="0 0 29 30" fill="none" xmlns="http://www.w3.org/2000/svg">
<path fill-rule="evenodd" clip-rule="evenodd" d="M14.6482 0.994141C12.21 0.995223 9.8158 1.64365 7.71029 2.87318C5.60478 4.10271 3.86348 5.86923 2.66436 7.9922C1.46523 10.1152 0.851294 12.5185 0.885275 14.9564C0.919256 17.3944 1.59994 19.7797 2.85777 21.8684L0.373047 29.266L7.98821 26.827C9.82734 27.8422 11.8744 28.4231 13.9726 28.5252C16.0708 28.6273 18.1646 28.2479 20.0936 27.4161C22.0226 26.5843 23.7357 25.3221 25.1018 23.7262C26.4678 22.1303 27.4505 20.2429 27.9746 18.2087C28.4988 16.1744 28.5505 14.0472 28.1259 11.9898C27.7012 9.93248 26.8113 7.99958 25.5245 6.33915C24.2376 4.67872 22.5879 3.33479 20.7016 2.41022C18.8153 1.48565 16.7424 1.00497 14.6417 1.005L14.6482 0.994141ZM14.6482 26.2199C12.4044 26.2243 10.2093 25.5658 8.33851 24.327L3.93477 25.7347L5.36425 21.4811C3.85549 19.397 3.09212 16.8658 3.19706 14.295C3.30201 11.7242 4.26917 9.26366 5.94278 7.30948C7.61639 5.3553 9.89903 4.0213 12.4231 3.52232C14.9471 3.02335 17.5656 3.38845 19.8569 4.55881C22.1482 5.72918 23.9789 7.63668 25.0542 9.97413C26.1294 12.3116 26.3866 14.9429 25.7843 17.4443C25.1821 19.9457 23.7554 22.1716 21.7341 23.7635C19.7129 25.3554 17.2146 26.2207 14.6417 26.2199H14.6482ZM21.1037 17.8889C20.7578 17.6996 19.0628 16.7858 18.7452 16.6553C18.4275 16.5247 18.1947 16.4594 17.9489 16.8032C17.703 17.147 16.998 17.9107 16.7848 18.137C16.5716 18.3632 16.3649 18.385 16.019 18.1957C14.9976 17.7453 14.0632 17.1193 13.2579 16.3463C12.516 15.608 11.8883 14.7632 11.3955 13.8398C11.2018 13.4808 11.3955 13.2981 11.576 13.1305C11.7566 12.963 11.9437 12.7324 12.1265 12.5344C12.278 12.3622 12.4034 12.1686 12.4986 11.96C12.5492 11.8653 12.5757 11.7595 12.5757 11.6521C12.5757 11.5447 12.5492 11.4389 12.4986 11.3442C12.4159 11.1658 11.7784 9.40999 11.5108 8.69634C11.2432 7.98269 10.9494 8.08711 10.7427 8.07841C10.536 8.06971 10.3076 8.0349 10.0704 8.02619C9.89232 8.02337 9.71559 8.05771 9.55151 8.12701C9.38742 8.19632 9.23959 8.29907 9.11744 8.4287C8.70599 8.7902 8.37433 9.23344 8.14358 9.73015C7.91282 10.2269 7.78804 10.7662 7.77717 11.3138C7.71407 13.0544 8.90856 14.7602 9.08262 15.0126C9.25668 15.2649 11.3672 19.0007 14.8854 20.5434C18.4036 22.086 18.4253 21.6138 19.0694 21.579C19.7134 21.5442 21.182 20.8066 21.5041 19.9972C21.8261 19.1879 21.8543 18.4742 21.7717 18.335C21.689 18.1957 21.4475 18.0782 21.1037 17.8889Z" fill="white"/>
</svg>
